{
	"name": "BadLinkScanner",
	"version": "0.0.1",
	"author": [
		"Daniel Stoeltzing",
		"Kristian Delay"
	],
	"type": "specialpage",
	"SpecialPages": {
		"BadLinkScanner": "SpecialBadLinkScanner"
	},
	"AutoloadClasses": {
		"SpecialBadLinkScanner": "SpecialBadLinkScanner.php"
	},
	"MessagesDirs": {
		"BadLinkScanner": [
			"i18n"
		]
	},
	"manifest_version": 2
}
